{"data": {"curPage": 2, "datas": [{"apkLink": "", "audit": 1, "author": "", "chapterId": 502, "chapterName": "自助", "collect": false, "courseId": 13, "desc": "", "envelopePic": "", "fresh": false, "id": 11111, "link": "https://blog.csdn.net/gdutxiaoxu/article/details/100998987", "niceDate": "2019-12-21 14:30", "niceShareDate": "2019-12-21 14:30", "origin": "", "prefix": "", "projectLink": "", "publishTime": 1576909823000, "selfVisible": 0, "shareDate": 1576909823000, "shareUser": "徐公码字", "superChapterId": 494, "superChapterName": "广场Tab", "tags": [], "title": "Android 点九图机制讲解及在聊天气泡中的应用", "type": 0, "userId": 5339, "visible": 1, "zan": 0}, {"apkLink": "", "audit": 1, "author": "", "chapterId": 502, "chapterName": "自助", "collect": false, "courseId": 13, "desc": "", "envelopePic": "", "fresh": false, "id": 11098, "link": "https://www.jianshu.com/p/3051b5d60c7c", "niceDate": "2019-12-20 19:17", "niceShareDate": "2019-12-20 19:17", "origin": "", "prefix": "", "projectLink": "", "publishTime": 1576840676000, "selfVisible": 0, "shareDate": 1576840676000, "shareUser": "野崎子", "superChapterId": 494, "superChapterName": "广场Tab", "tags": [], "title": "Android圆角ViewGrup/View库（可加边框），妈妈再也不用担心设计圆角了！", "type": 0, "userId": 39246, "visible": 1, "zan": 0}, {"apkLink": "", "audit": 1, "author": "", "chapterId": 502, "chapterName": "自助", "collect": false, "courseId": 13, "desc": "", "envelopePic": "", "fresh": false, "id": 11096, "link": "https://juejin.im/post/5dfc6c0c6fb9a0162c487531", "niceDate": "2019-12-20 16:48", "niceShareDate": "2019-12-20 16:48", "origin": "", "prefix": "", "projectLink": "", "publishTime": 1576831686000, "selfVisible": 0, "shareDate": 1576831686000, "shareUser": "Leon", "superChapterId": 494, "superChapterName": "广场Tab", "tags": [], "title": "今天学ViewPager2", "type": 0, "userId": 9109, "visible": 1, "zan": 0}, {"apkLink": "", "audit": 1, "author": "", "chapterId": 502, "chapterName": "自助", "collect": false, "courseId": 13, "desc": "", "envelopePic": "", "fresh": false, "id": 11095, "link": "https://blog.csdn.net/hfy8971613/article/details/101922422", "niceDate": "2019-12-20 16:31", "niceShareDate": "2019-12-20 16:31", "origin": "", "prefix": "", "projectLink": "", "publishTime": 1576830705000, "selfVisible": 0, "shareDate": 1576830705000, "shareUser": "feiyang", "superChapterId": 494, "superChapterName": "广场Tab", "tags": [], "title": "View事件分发、滑动冲突 全解析~", "type": 0, "userId": 31360, "visible": 1, "zan": 0}, {"apkLink": "", "audit": 1, "author": "", "chapterId": 502, "chapterName": "自助", "collect": false, "courseId": 13, "desc": "", "envelopePic": "", "fresh": false, "id": 11084, "link": "https://juejin.im/post/5dfae03af265da33cb1f9fde", "niceDate": "2019-12-20 10:52", "niceShareDate": "2019-12-20 10:52", "origin": "", "prefix": "", "projectLink": "", "publishTime": 1576810322000, "selfVisible": 0, "shareDate": 1576810322000, "shareUser": "renxhui", "superChapterId": 494, "superChapterName": "广场Tab", "tags": [], "title": "Android 插件化原理及实践", "type": 0, "userId": 27931, "visible": 1, "zan": 0}, {"apkLink": "", "audit": 1, "author": "", "chapterId": 502, "chapterName": "自助", "collect": false, "courseId": 13, "desc": "", "envelopePic": "", "fresh": false, "id": 11083, "link": "https://juejin.im/post/5de4bf18f265da05cf7d7180", "niceDate": "2019-12-20 10:03", "niceShareDate": "2019-12-20 10:03", "origin": "", "prefix": "", "projectLink": "", "publishTime": 1576807389000, "selfVisible": 0, "shareDate": 1576807389000, "shareUser": "吊儿郎当", "superChapterId": 494, "superChapterName": "广场Tab", "tags": [], "title": "懂LruCache？你必须先懂LinkedHashMap，顺带给LruCache提个建议", "type": 0, "userId": 2554, "visible": 1, "zan": 0}, {"apkLink": "", "audit": 1, "author": "", "chapterId": 502, "chapterName": "自助", "collect": false, "courseId": 13, "desc": "", "envelopePic": "", "fresh": false, "id": 11054, "link": "https://blog.csdn.net/gdutxiaoxu/article/details/103263744", "niceDate": "2019-12-19 19:19", "niceShareDate": "2019-12-19 19:19", "origin": "", "prefix": "", "projectLink": "", "publishTime": 1576754371000, "selfVisible": 0, "shareDate": 1576754371000, "shareUser": "徐公码字", "superChapterId": 494, "superChapterName": "广场Tab", "tags": [], "title": "面试官，怎样实现 Router 框架？", "type": 0, "userId": 5339, "visible": 1, "zan": 0}, {"apkLink": "", "audit": 1, "author": "", "chapterId": 502, "chapterName": "自助", "collect": false, "courseId": 13, "desc": "", "envelopePic": "", "fresh": false, "id": 11052, "link": "https://juejin.im/post/5dfa2e7951882512713d2b7b", "niceDate": "2019-12-19 17:04", "niceShareDate": "2019-12-19 17:04", "origin": "", "prefix": "", "projectLink": "", "publishTime": 1576746294000, "selfVisible": 0, "shareDate": 1576746294000, "shareUser": "Evan", "superChapterId": 494, "superChapterName": "广场Tab", "tags": [], "title": "阿里巴巴Android开发手册为啥建议你用线程池？", "type": 0, "userId": 8511, "visible": 1, "zan": 0}, {"apkLink": "", "audit": 1, "author": "", "chapterId": 502, "chapterName": "自助", "collect": false, "courseId": 13, "desc": "", "envelopePic": "", "fresh": false, "id": 11048, "link": "https://juejin.im/post/5d63f620f265da03970bc76d", "niceDate": "2019-12-19 13:48", "niceShareDate": "2019-12-19 13:48", "origin": "", "prefix": "", "projectLink": "", "publishTime": 1576734505000, "selfVisible": 0, "shareDate": 1576734505000, "shareUser": "Hankkin", "superChapterId": 494, "superChapterName": "广场Tab", "tags": [], "title": "6. Jetpack---Paging你知道怎样上拉加载吗？", "type": 0, "userId": 7490, "visible": 1, "zan": 0}, {"apkLink": "", "audit": 1, "author": "鸿洋", "chapterId": 408, "chapterName": "鸿洋", "collect": false, "courseId": 13, "desc": "", "envelopePic": "", "fresh": false, "id": 11059, "link": "https://mp.weixin.qq.com/s/p1iwC87f2GS3upbEpsJdiw", "niceDate": "2019-12-19 00:00", "niceShareDate": "2019-12-19 20:51", "origin": "", "prefix": "", "projectLink": "", "publishTime": 1576684800000, "selfVisible": 0, "shareDate": 1576759911000, "shareUser": "", "superChapterId": 408, "superChapterName": "公众号", "tags": [{"name": "公众号", "url": "/wxarticle/list/408/1"}], "title": "论程序员的戾气", "type": 0, "userId": -1, "visible": 1, "zan": 0}, {"apkLink": "", "audit": 1, "author": "郭霖", "chapterId": 409, "chapterName": "郭霖", "collect": false, "courseId": 13, "desc": "", "envelopePic": "", "fresh": false, "id": 11062, "link": "https://mp.weixin.qq.com/s/X7CL-Gb_rOCywAW92TFPlg", "niceDate": "2019-12-19 00:00", "niceShareDate": "2019-12-19 21:05", "origin": "", "prefix": "", "projectLink": "", "publishTime": 1576684800000, "selfVisible": 0, "shareDate": 1576760714000, "shareUser": "", "superChapterId": 408, "superChapterName": "公众号", "tags": [{"name": "公众号", "url": "/wxarticle/list/409/1"}], "title": "这份Android Studio快捷键大全，让你的开发效率快10倍", "type": 0, "userId": -1, "visible": 1, "zan": 0}, {"apkLink": "", "audit": 1, "author": "code小生", "chapterId": 414, "chapterName": "code小生", "collect": false, "courseId": 13, "desc": "", "envelopePic": "", "fresh": false, "id": 11064, "link": "https://mp.weixin.qq.com/s/cHXrB582Op1lu3ZlrLKYcg", "niceDate": "2019-12-19 00:00", "niceShareDate": "2019-12-19 21:06", "origin": "", "prefix": "", "projectLink": "", "publishTime": 1576684800000, "selfVisible": 0, "shareDate": 1576760765000, "shareUser": "", "superChapterId": 408, "superChapterName": "公众号", "tags": [{"name": "公众号", "url": "/wxarticle/list/414/1"}], "title": "你知道 Android 为什么会 Crash 吗", "type": 0, "userId": -1, "visible": 1, "zan": 0}, {"apkLink": "", "audit": 1, "author": "玉刚说", "chapterId": 410, "chapterName": "玉刚说", "collect": false, "courseId": 13, "desc": "", "envelopePic": "", "fresh": false, "id": 11069, "link": "https://mp.weixin.qq.com/s/P9_BH0WJ_H3tjItnqsRlcQ", "niceDate": "2019-12-19 00:00", "niceShareDate": "2019-12-19 21:11", "origin": "", "prefix": "", "projectLink": "", "publishTime": 1576684800000, "selfVisible": 0, "shareDate": 1576761069000, "shareUser": "", "superChapterId": 408, "superChapterName": "公众号", "tags": [{"name": "公众号", "url": "/wxarticle/list/410/1"}], "title": "漫画：什么是LRU算法？", "type": 0, "userId": -1, "visible": 1, "zan": 0}, {"apkLink": "", "audit": 1, "author": "互联网侦察", "chapterId": 421, "chapterName": "互联网侦察", "collect": false, "courseId": 13, "desc": "", "envelopePic": "", "fresh": false, "id": 11075, "link": "https://mp.weixin.qq.com/s/63VcAGpcaJj5rhmfZu7LtQ", "niceDate": "2019-12-19 00:00", "niceShareDate": "2019-12-19 21:14", "origin": "", "prefix": "", "projectLink": "", "publishTime": 1576684800000, "selfVisible": 0, "shareDate": 1576761243000, "shareUser": "", "superChapterId": 408, "superChapterName": "公众号", "tags": [{"name": "公众号", "url": "/wxarticle/list/421/1"}], "title": "Union-Find 并查集算法详解", "type": 0, "userId": -1, "visible": 1, "zan": 0}, {"apkLink": "", "audit": 1, "author": "", "chapterId": 502, "chapterName": "自助", "collect": false, "courseId": 13, "desc": "", "envelopePic": "", "fresh": false, "id": 11039, "link": "https://juejin.im/post/5dfa320d518825124a05c05e", "niceDate": "2019-12-18 22:11", "niceShareDate": "2019-12-18 22:11", "origin": "", "prefix": "", "projectLink": "", "publishTime": 1576678275000, "selfVisible": 0, "shareDate": 1576678275000, "shareUser": "Evan", "superChapterId": 494, "superChapterName": "广场Tab", "tags": [], "title": "Android多线程使用及AsyncTask源码分析", "type": 0, "userId": 8511, "visible": 1, "zan": 0}, {"apkLink": "", "audit": 1, "author": "", "chapterId": 502, "chapterName": "自助", "collect": false, "courseId": 13, "desc": "", "envelopePic": "", "fresh": false, "id": 11010, "link": "https://www.jianshu.com/p/a7633a029db6", "niceDate": "2019-12-18 10:42", "niceShareDate": "2019-12-18 10:42", "origin": "", "prefix": "", "projectLink": "", "publishTime": 1576636934000, "selfVisible": 0, "shareDate": 1576636934000, "shareUser": "吊儿郎当", "superChapterId": 494, "superChapterName": "广场Tab", "tags": [], "title": "面试必问的HashMap知识点，类比1.7差异分析", "type": 0, "userId": 2554, "visible": 1, "zan": 0}, {"apkLink": "", "audit": 1, "author": "", "chapterId": 502, "chapterName": "自助", "collect": false, "courseId": 13, "desc": "", "envelopePic": "", "fresh": false, "id": 11008, "link": "https://juejin.im/post/5df8888e6fb9a015fc5fbcb3", "niceDate": "2019-12-18 09:39", "niceShareDate": "2019-12-18 09:39", "origin": "", "prefix": "", "projectLink": "", "publishTime": 1576633141000, "selfVisible": 0, "shareDate": 1576633141000, "shareUser": "cxxxlll", "superChapterId": 494, "superChapterName": "广场Tab", "tags": [], "title": "使用CameraX几行代码实现摄像头预览和拍照", "type": 0, "userId": 6034, "visible": 1, "zan": 0}, {"apkLink": "", "audit": 1, "author": "", "chapterId": 502, "chapterName": "自助", "collect": false, "courseId": 13, "desc": "", "envelopePic": "", "fresh": false, "id": 11006, "link": "https://juejin.im/post/5de603a751882504834fb0ce", "niceDate": "2019-12-18 08:52", "niceShareDate": "2019-12-18 08:52", "origin": "", "prefix": "", "projectLink": "", "publishTime": 1576630377000, "selfVisible": 0, "shareDate": 1576630377000, "shareUser": "九天zone", "superChapterId": 494, "superChapterName": "广场Tab", "tags": [], "title": "精度损失指北：1 - 0.9 为什么不等于 0.1", "type": 0, "userId": 24384, "visible": 1, "zan": 0}, {"apkLink": "", "audit": 1, "author": "鸿洋", "chapterId": 408, "chapterName": "鸿洋", "collect": false, "courseId": 13, "desc": "", "envelopePic": "", "fresh": false, "id": 11058, "link": "https://mp.weixin.qq.com/s/gzHjLJsAePgI6PrasYuU9g", "niceDate": "2019-12-18 00:00", "niceShareDate": "2019-12-19 20:51", "origin": "", "prefix": "", "projectLink": "", "publishTime": 1576598400000, "selfVisible": 0, "shareDate": 1576759884000, "shareUser": "", "superChapterId": 408, "superChapterName": "公众号", "tags": [{"name": "公众号", "url": "/wxarticle/list/408/1"}], "title": "Android 一些值得你深入的细节 | Window 篇", "type": 0, "userId": -1, "visible": 1, "zan": 0}, {"apkLink": "", "audit": 1, "author": "郭霖", "chapterId": 409, "chapterName": "郭霖", "collect": false, "courseId": 13, "desc": "", "envelopePic": "", "fresh": false, "id": 11061, "link": "https://mp.weixin.qq.com/s/hjnVUNSHIEHx5R2L7i7KvA", "niceDate": "2019-12-18 00:00", "niceShareDate": "2019-12-19 21:04", "origin": "", "prefix": "", "projectLink": "", "publishTime": 1576598400000, "selfVisible": 0, "shareDate": 1576760693000, "shareUser": "", "superChapterId": 408, "superChapterName": "公众号", "tags": [{"name": "公众号", "url": "/wxarticle/list/409/1"}], "title": "看完这篇文章，Jetpack的ViewModel闭着眼睛用", "type": 0, "userId": -1, "visible": 1, "zan": 0}], "offset": 20, "over": false, "pageCount": 388, "size": 20, "total": 7755}, "errorCode": 0, "errorMsg": ""}